{
  "kind": "collectionType",
  "collectionName": "categories",
  "info": {
    "name": "categories",
    "description": ""
  },
  "options": {
    "increments": true,
    "timestamps": true,
    "draftAndPublish": true
  },
  "attributes": {
    "title": {
      "type": "string"
    },
    "articles": {
      "via": "category",
      "collection": "article"
    },
    "slug": {
      "type": "string"
    }
  }
}
